…
Convirtiendo todo a dolares

``` r
big_mac %>%
  group_by(date) %>%
  mutate(usd_price = local_price[iso_a3 == "USA"],
         us_gdp = gdp_dollar[iso_a3 == "USA"]) %>%
  ungroup() %>%
  mutate(big_mac_ex = local_price / usd_price)%>%
  select(date, iso_a3, country, local_price, dollar_ex, usd_price, big_mac_ex, usd_raw, gdp_dollar, us_gdp, usd_adjusted)
```

    ## # A tibble: 891 x 11
    ##    date       iso_a3 country local_price dollar_ex usd_price big_mac_ex  usd_raw
    ##    <date>     <chr>  <chr>         <dbl>     <dbl>     <dbl>      <dbl>    <dbl>
    ##  1 2000-04-01 ARG    Argent…        2.5       1         2.51      0.996 -0.00398
    ##  2 2001-04-01 ARG    Argent…        2.5       1         2.54      0.984 -0.0158 
    ##  3 2002-04-01 ARG    Argent…        2.5       3.13      2.49      1.00  -0.679  
    ##  4 2003-04-01 ARG    Argent…        4.1       2.88      2.71      1.51  -0.475  
    ##  5 2004-05-01 ARG    Argent…        4.36      2.95      2.9       1.50  -0.490  
    ##  6 2005-06-01 ARG    Argent…        4.75      2.90      3.06      1.55  -0.464  
    ##  7 2006-01-01 ARG    Argent…        4.75      3.06      3.15      1.51  -0.508  
    ##  8 2006-05-01 ARG    Argent…        7         3.06      3.1       2.26  -0.261  
    ##  9 2007-01-01 ARG    Argent…        8.25      3.09      3.22      2.56  -0.170  
    ## 10 2007-06-01 ARG    Argent…        8.25      3.09      3.41      2.42  -0.217  
    ## # … with 881 more rows, and 3 more variables: gdp_dollar <dbl>, us_gdp <dbl>,
    ## #   usd_adjusted <dbl>
…
