…
Creamos un indicaror

``` r
data<-data %>%
  mutate(id = 1:n())

data
```

    ## # A tibble: 7,043 x 21
    ##    gender SeniorCitizen Partner Dependents tenure PhoneService MultipleLines
    ##    <chr>          <dbl> <chr>   <chr>       <dbl> <chr>        <chr>        
    ##  1 Female             0 Yes     No              1 No           No phone ser…
    ##  2 Male               0 No      No             34 Yes          No           
    ##  3 Male               0 No      No              2 Yes          No           
    ##  4 Male               0 No      No             45 No           No phone ser…
    ##  5 Female             0 No      No              2 Yes          No           
    ##  6 Female             0 No      No              8 Yes          Yes          
    ##  7 Male               0 No      Yes            22 Yes          Yes          
    ##  8 Female             0 No      No             10 No           No phone ser…
    ##  9 Female             0 Yes     No             28 Yes          Yes          
    ## 10 Male               0 No      Yes            62 Yes          No           
    ## # … with 7,033 more rows, and 14 more variables: InternetService <chr>,
    ## #   OnlineSecurity <chr>, OnlineBackup <chr>, DeviceProtection <chr>,
    ## #   TechSupport <chr>, StreamingTV <chr>, StreamingMovies <chr>,
    ## #   Contract <chr>, PaperlessBilling <chr>, PaymentMethod <chr>,
    ## #   MonthlyCharges <dbl>, TotalCharges <dbl>, Churn <chr>, id <int>
…
``` r
library(GGally)
data%>%
  select_if(is.numeric)%>%
  dplyr::select(-id)
```

    ## # A tibble: 7,032 x 3
    ##    tenure monthly_charges total_charges
    ##     <dbl>           <dbl>         <dbl>
    ##  1      1            29.8          29.8
    ##  2     34            57.0        1890. 
    ##  3      2            53.8         108. 
    ##  4     45            42.3        1841. 
    ##  5      2            70.7         152. 
    ##  6      8            99.6         820. 
    ##  7     22            89.1        1949. 
    ##  8     10            29.8         302. 
    ##  9     28           105.         3046. 
    ## 10     62            56.2        3488. 
    ## # … with 7,022 more rows
…
